PWD /home/jorge/Dropbox/LIVRODACLASSE/producao/laozi-daodejing-aprimeiraopcao-52
INPUT /etc/texmf/web2c/texmf.cnf
INPUT /usr/share/texlive/texmf/web2c/texmf.cnf
INPUT /var/lib/texmf/web2c/xetex/xelatex.fmt
INPUT LIVRO.tex
OUTPUT LIVRO.log
INPUT /usr/share/texlive/texmf-dist/tex/latex/memoir/memoir.cls
INPUT /usr/share/texlive/texmf-dist/tex/latex/memoir/memoir.cls
INPUT /usr/share/texlive/texmf-dist/tex/generic/oberdiek/ifpdf.sty
INPUT /usr/share/texlive/texmf-dist/tex/generic/oberdiek/ifpdf.sty
INPUT /usr/share/texlive/texmf-dist/tex/generic/oberdiek/ifpdf.sty
INPUT /usr/share/texlive/texmf-dist/tex/latex/ifetex/ifetex.sty
INPUT /usr/share/texlive/texmf-dist/tex/latex/ifetex/ifetex.sty
INPUT /usr/share/texlive/texmf-dist/tex/latex/ifetex/ifetex.sty
INPUT /usr/share/texlive/texmf-dist/tex/plain/ifetex/ifetex.tex
INPUT /usr/share/texlive/texmf-dist/tex/generic/ifxetex/ifxetex.sty
INPUT /usr/share/texlive/texmf-dist/tex/generic/ifxetex/ifxetex.sty
INPUT /usr/share/texlive/texmf-dist/tex/generic/ifxetex/ifxetex.sty
INPUT /usr/share/texlive/texmf-dist/tex/generic/oberdiek/ifluatex.sty
INPUT /usr/share/texlive/texmf-dist/tex/generic/oberdiek/ifluatex.sty
INPUT /usr/share/texlive/texmf-dist/tex/generic/oberdiek/ifluatex.sty
INPUT /usr/share/texlive/texmf-dist/tex/latex/etex-pkg/etex.sty
INPUT /usr/share/texlive/texmf-dist/tex/latex/etex-pkg/etex.sty
INPUT /usr/share/texlive/texmf-dist/tex/latex/etex-pkg/etex.sty
INPUT /usr/share/texlive/texmf-dist/tex/latex/memoir/mem11.clo
INPUT /usr/share/texlive/texmf-dist/tex/latex/memoir/mem11.clo
INPUT /usr/share/texlive/texmf-dist/fonts/map/fontname/texfonts.map
INPUT /usr/share/texlive/texmf-dist/fonts/tfm/public/cm/cmr10.tfm
INPUT /usr/share/texlive/texmf-dist/fonts/tfm/public/cm/cmr9.tfm
INPUT /usr/share/texlive/texmf-dist/tex/latex/memoir/mempatch.sty
INPUT /usr/share/texlive/texmf-dist/tex/latex/memoir/mempatch.sty
INPUT /usr/share/texlive/texmf-dist/tex/latex/memoir/mempatch.sty
INPUT /home/jorge/texmf/tex/hedra.sty
INPUT /home/jorge/texmf/tex/hedra.sty
INPUT /home/jorge/texmf/tex/hedraoptions.sty
INPUT /home/jorge/texmf/tex/hedraoptions.sty
INPUT /home/jorge/texmf/tex/hedrastyles.sty
INPUT /home/jorge/texmf/tex/hedrastyles.sty
INPUT /usr/share/texlive/texmf-dist/tex/latex/textcase/textcase.sty
INPUT /usr/share/texlive/texmf-dist/tex/latex/textcase/textcase.sty
INPUT /usr/share/texlive/texmf-dist/tex/latex/etoolbox/etoolbox.sty
INPUT /usr/share/texlive/texmf-dist/tex/latex/etoolbox/etoolbox.sty
INPUT /home/jorge/texmf/tex/tipografia.sty
INPUT /home/jorge/texmf/tex/tipografia.sty
INPUT /usr/share/texlive/texmf-dist/tex/latex/lettrine/lettrine.sty
INPUT /usr/share/texlive/texmf-dist/tex/latex/lettrine/lettrine.sty
INPUT /usr/share/texlive/texmf-dist/tex/latex/graphics/keyval.sty
INPUT /usr/share/texlive/texmf-dist/tex/latex/graphics/keyval.sty
INPUT /usr/share/texlive/texmf-dist/tex/latex/lettrine/lettrine.cfg
INPUT /usr/share/texlive/texmf-dist/tex/latex/lettrine/lettrine.cfg
INPUT /usr/share/texlive/texmf-dist/tex/generic/ulem/ulem.sty
INPUT /usr/share/texlive/texmf-dist/tex/generic/ulem/ulem.sty
INPUT /usr/share/texlive/texmf-dist/fonts/tfm/public/latex-fonts/lasy6.tfm
INPUT /usr/share/texlive/texmf-dist/tex/latex/comment/comment.sty
INPUT /usr/share/texlive/texmf-dist/tex/latex/comment/comment.sty
INPUT /usr/share/texlive/texmf-dist/tex/latex/lipsum/lipsum.sty
INPUT /usr/share/texlive/texmf-dist/tex/latex/lipsum/lipsum.sty
INPUT /usr/share/texlive/texmf-dist/tex/latex/adforn/adforn.sty
INPUT /usr/share/texlive/texmf-dist/tex/latex/adforn/adforn.sty
INPUT /usr/share/texlive/texmf-dist/tex/latex/psnfss/pifont.sty
INPUT /usr/share/texlive/texmf-dist/tex/latex/psnfss/pifont.sty
INPUT /usr/share/texlive/texmf-dist/tex/latex/psnfss/upzd.fd
INPUT /usr/share/texlive/texmf-dist/tex/latex/psnfss/upzd.fd
INPUT /usr/share/texlive/texmf-dist/fonts/tfm/adobe/zapfding/pzdr.tfm
INPUT /usr/share/texlive/texmf-dist/tex/latex/psnfss/upsy.fd
INPUT /usr/share/texlive/texmf-dist/tex/latex/psnfss/upsy.fd
INPUT /usr/share/texlive/texmf-dist/fonts/tfm/adobe/symbol/psyr.tfm
INPUT /usr/share/texlive/texmf-dist/tex/latex/adforn/uornementsadf.fd
INPUT /usr/share/texlive/texmf-dist/tex/latex/adforn/uornementsadf.fd
INPUT /usr/share/texlive/texmf-dist/fonts/tfm/arkandis/adforn/OrnementsADF.tfm
INPUT /home/jorge/texmf/tex/hifensextras.sty
INPUT /home/jorge/texmf/tex/hifensextras.sty
INPUT /usr/share/texlive/texmf-dist/tex/latex/ncctools/manyfoot.sty
INPUT /usr/share/texlive/texmf-dist/tex/latex/ncctools/manyfoot.sty
INPUT /usr/share/texlive/texmf-dist/tex/latex/ncctools/nccfoots.sty
INPUT /usr/share/texlive/texmf-dist/tex/latex/ncctools/nccfoots.sty
INPUT /usr/share/texlive/texmf-dist/fonts/tfm/arkandis/adforn/OrnementsADF.tfm
INPUT /usr/share/texlive/texmf-dist/tex/latex/footmisc/footmisc.sty
INPUT /usr/share/texlive/texmf-dist/tex/latex/footmisc/footmisc.sty
INPUT /usr/share/texlive/texmf-dist/tex/latex/xifthen/xifthen.sty
INPUT /usr/share/texlive/texmf-dist/tex/latex/xifthen/xifthen.sty
INPUT /usr/share/texlive/texmf-dist/tex/latex/tools/calc.sty
INPUT /usr/share/texlive/texmf-dist/tex/latex/tools/calc.sty
INPUT /usr/share/texlive/texmf-dist/tex/latex/base/ifthen.sty
INPUT /usr/share/texlive/texmf-dist/tex/latex/base/ifthen.sty
INPUT /usr/share/texlive/texmf-dist/tex/latex/mdwtools/footnote.sty
INPUT /usr/share/texlive/texmf-dist/tex/latex/mdwtools/footnote.sty
INPUT /var/lib/texmf/tex/generic/babel/babel.sty
INPUT /var/lib/texmf/tex/generic/babel/babel.sty
INPUT /usr/share/texlive/texmf-dist/tex/generic/babel/greek.ldf
INPUT /usr/share/texlive/texmf-dist/tex/generic/babel/greek.ldf
INPUT /usr/share/texlive/texmf-dist/tex/generic/babel/babel.def
INPUT /usr/share/texlive/texmf-dist/tex/generic/babel/lgrenc.def
INPUT /usr/share/texlive/texmf-dist/tex/generic/babel/lgrenc.def
INPUT /usr/share/texlive/texmf-dist/tex/generic/babel/english.ldf
INPUT /usr/share/texlive/texmf-dist/tex/generic/babel/english.ldf
INPUT /usr/share/texlive/texmf-dist/tex/generic/babel/italian.ldf
INPUT /usr/share/texlive/texmf-dist/tex/generic/babel/italian.ldf
INPUT /usr/share/texlive/texmf-dist/tex/generic/babel/lgrcmr.fd
INPUT /usr/share/texlive/texmf-dist/tex/latex/cyrillic/ot2cmr.fd
INPUT /usr/share/texlive/texmf-dist/tex/generic/babel/ngermanb.ldf
INPUT /usr/share/texlive/texmf-dist/tex/generic/babel/ngermanb.ldf
INPUT /usr/share/texlive/texmf-dist/tex/generic/babel/frenchb.ldf
INPUT /usr/share/texlive/texmf-dist/tex/generic/babel/frenchb.ldf
INPUT /usr/share/texlive/texmf-dist/tex/generic/babel/frenchb.cfg
INPUT /usr/share/texlive/texmf-dist/tex/generic/babel/frenchb.cfg
INPUT /usr/share/texlive/texmf-dist/tex/generic/babel/russianb.ldf
INPUT /usr/share/texlive/texmf-dist/tex/generic/babel/russianb.ldf
INPUT /usr/share/texlive/texmf-dist/tex/latex/cyrillic/ot2enc.def
INPUT /usr/share/texlive/texmf-dist/tex/latex/cyrillic/lcyenc.def
INPUT /usr/share/texlive/texmf-dist/tex/latex/cyrillic/x2enc.def
INPUT /usr/share/texlive/texmf-dist/tex/latex/cyrillic/t2cenc.def
INPUT /usr/share/texlive/texmf-dist/tex/latex/cyrillic/t2benc.def
INPUT /usr/share/texlive/texmf-dist/tex/latex/cyrillic/t2aenc.def
INPUT /usr/share/texlive/texmf-dist/tex/latex/cyrillic/t2aenc.def
INPUT /usr/share/texlive/texmf-dist/tex/generic/babel/portuges.ldf
INPUT /usr/share/texlive/texmf-dist/tex/generic/babel/portuges.ldf
INPUT /usr/share/texlive/texmf-dist/tex/latex/carlisle/scalefnt.sty
INPUT /usr/share/texlive/texmf-dist/tex/latex/carlisle/scalefnt.sty
INPUT /usr/share/texlive/texmf-dist/tex/latex/microtype/microtype.sty
INPUT /usr/share/texlive/texmf-dist/tex/latex/microtype/microtype.sty
INPUT /usr/share/texlive/texmf-dist/tex/latex/fontspec/fontspec.sty
INPUT /usr/share/texlive/texmf-dist/tex/latex/fontspec/fontspec.sty
INPUT /usr/share/texlive/texmf-dist/tex/latex/l3kernel/expl3.sty
INPUT /usr/share/texlive/texmf-dist/tex/latex/l3kernel/expl3.sty
INPUT /usr/share/texlive/texmf-dist/tex/latex/l3kernel/l3names.sty
INPUT /usr/share/texlive/texmf-dist/tex/latex/l3kernel/l3names.sty
INPUT /usr/share/texlive/texmf-dist/tex/latex/l3kernel/l3bootstrap.sty
INPUT /usr/share/texlive/texmf-dist/tex/latex/l3kernel/l3bootstrap.sty
INPUT /usr/share/texlive/texmf-dist/tex/latex/graphics/color.sty
INPUT /usr/share/texlive/texmf-dist/tex/latex/graphics/color.sty
INPUT /usr/share/texlive/texmf-dist/tex/latex/latexconfig/color.cfg
INPUT /usr/share/texlive/texmf-dist/tex/latex/latexconfig/color.cfg
INPUT /usr/share/texlive/texmf-dist/tex/xelatex/xetex-def/xetex.def
INPUT /usr/share/texlive/texmf-dist/tex/xelatex/xetex-def/xetex.def
INPUT /usr/share/texlive/texmf-dist/tex/latex/graphics/graphics.sty
INPUT /usr/share/texlive/texmf-dist/tex/latex/graphics/graphics.sty
INPUT /usr/share/texlive/texmf-dist/tex/latex/graphics/trig.sty
INPUT /usr/share/texlive/texmf-dist/tex/latex/graphics/trig.sty
INPUT /usr/share/texlive/texmf-dist/tex/latex/latexconfig/graphics.cfg
INPUT /usr/share/texlive/texmf-dist/tex/latex/latexconfig/graphics.cfg
INPUT /usr/share/texlive/texmf-dist/tex/latex/l3kernel/l3basics.sty
INPUT /usr/share/texlive/texmf-dist/tex/latex/l3kernel/l3basics.sty
INPUT /usr/share/texlive/texmf-dist/tex/latex/l3kernel/l3expan.sty
INPUT /usr/share/texlive/texmf-dist/tex/latex/l3kernel/l3expan.sty
INPUT /usr/share/texlive/texmf-dist/tex/latex/l3kernel/l3tl.sty
INPUT /usr/share/texlive/texmf-dist/tex/latex/l3kernel/l3tl.sty
INPUT /usr/share/texlive/texmf-dist/tex/latex/l3kernel/l3seq.sty
INPUT /usr/share/texlive/texmf-dist/tex/latex/l3kernel/l3seq.sty
INPUT /usr/share/texlive/texmf-dist/tex/latex/l3kernel/l3int.sty
INPUT /usr/share/texlive/texmf-dist/tex/latex/l3kernel/l3int.sty
INPUT /usr/share/texlive/texmf-dist/tex/latex/l3kernel/l3quark.sty
INPUT /usr/share/texlive/texmf-dist/tex/latex/l3kernel/l3quark.sty
INPUT /usr/share/texlive/texmf-dist/tex/latex/l3kernel/l3prg.sty
INPUT /usr/share/texlive/texmf-dist/tex/latex/l3kernel/l3prg.sty
INPUT /usr/share/texlive/texmf-dist/tex/latex/l3kernel/l3clist.sty
INPUT /usr/share/texlive/texmf-dist/tex/latex/l3kernel/l3clist.sty
INPUT /usr/share/texlive/texmf-dist/tex/latex/l3kernel/l3token.sty
INPUT /usr/share/texlive/texmf-dist/tex/latex/l3kernel/l3token.sty
INPUT /usr/share/texlive/texmf-dist/tex/latex/l3kernel/l3prop.sty
INPUT /usr/share/texlive/texmf-dist/tex/latex/l3kernel/l3prop.sty
INPUT /usr/share/texlive/texmf-dist/tex/latex/l3kernel/l3msg.sty
INPUT /usr/share/texlive/texmf-dist/tex/latex/l3kernel/l3msg.sty
INPUT /usr/share/texlive/texmf-dist/tex/latex/l3kernel/l3file.sty
INPUT /usr/share/texlive/texmf-dist/tex/latex/l3kernel/l3file.sty
INPUT /usr/share/texlive/texmf-dist/tex/latex/l3kernel/l3skip.sty
INPUT /usr/share/texlive/texmf-dist/tex/latex/l3kernel/l3skip.sty
INPUT /usr/share/texlive/texmf-dist/tex/latex/l3kernel/l3keys.sty
INPUT /usr/share/texlive/texmf-dist/tex/latex/l3kernel/l3keys.sty
INPUT /usr/share/texlive/texmf-dist/tex/latex/l3kernel/l3fp.sty
INPUT /usr/share/texlive/texmf-dist/tex/latex/l3kernel/l3fp.sty
INPUT /usr/share/texlive/texmf-dist/tex/latex/l3kernel/l3box.sty
INPUT /usr/share/texlive/texmf-dist/tex/latex/l3kernel/l3box.sty
INPUT /usr/share/texlive/texmf-dist/tex/latex/l3kernel/l3coffins.sty
INPUT /usr/share/texlive/texmf-dist/tex/latex/l3kernel/l3coffins.sty
INPUT /usr/share/texlive/texmf-dist/tex/latex/l3kernel/l3color.sty
INPUT /usr/share/texlive/texmf-dist/tex/latex/l3kernel/l3color.sty
INPUT /usr/share/texlive/texmf-dist/tex/latex/l3kernel/l3luatex.sty
INPUT /usr/share/texlive/texmf-dist/tex/latex/l3kernel/l3luatex.sty
INPUT /usr/share/texlive/texmf-dist/tex/latex/l3packages/xparse/xparse.sty
INPUT /usr/share/texlive/texmf-dist/tex/latex/l3packages/xparse/xparse.sty
INPUT /usr/share/texlive/texmf-dist/tex/latex/fontspec/fontspec-patches.sty
INPUT /usr/share/texlive/texmf-dist/tex/latex/fontspec/fontspec-patches.sty
INPUT /usr/share/texlive/texmf-dist/tex/latex/base/fixltx2e.sty
INPUT /usr/share/texlive/texmf-dist/tex/latex/base/fixltx2e.sty
INPUT /usr/share/texlive/texmf-dist/tex/latex/fontspec/fontspec-xetex.sty
INPUT /usr/share/texlive/texmf-dist/tex/latex/fontspec/fontspec-xetex.sty
INPUT /usr/share/texlive/texmf-dist/tex/latex/base/fontenc.sty
INPUT /usr/share/texlive/texmf-dist/tex/latex/base/fontenc.sty
INPUT /usr/share/texlive/texmf-dist/tex/latex/euenc/eu1enc.def
INPUT /usr/share/texlive/texmf-dist/tex/latex/euenc/eu1enc.def
INPUT /usr/share/texlive/texmf-dist/tex/latex/euenc/eu1lmr.fd
INPUT /usr/share/texlive/texmf-dist/tex/latex/euenc/eu1lmr.fd
INPUT /usr/share/texlive/texmf-dist/tex/xelatex/xunicode/xunicode.sty
INPUT /usr/share/texlive/texmf-dist/tex/xelatex/xunicode/xunicode.sty
INPUT /usr/share/texmf/tex/latex/tipa/t3enc.def
INPUT /usr/share/texlive/texmf-dist/tex/latex/euenc/eu1lmss.fd
INPUT /usr/share/texlive/texmf-dist/tex/latex/euenc/eu1lmss.fd
INPUT /usr/share/texlive/texmf-dist/tex/latex/graphics/graphicx.sty
INPUT /usr/share/texlive/texmf-dist/tex/latex/graphics/graphicx.sty
INPUT /usr/share/texlive/texmf-dist/tex/latex/fontspec/fontspec.cfg
INPUT /usr/share/texlive/texmf-dist/tex/latex/fontspec/fontspec.cfg
INPUT /home/jorge/texmf/tex/toc.sty
INPUT /home/jorge/texmf/tex/toc.sty
INPUT /usr/share/texlive/texmf-dist/tex/latex/titlesec/titletoc.sty
INPUT /usr/share/texlive/texmf-dist/tex/latex/titlesec/titletoc.sty
INPUT /usr/share/texlive/texmf-dist/tex/latex/relsize/relsize.sty
INPUT /usr/share/texlive/texmf-dist/tex/latex/relsize/relsize.sty
INPUT /home/jorge/texmf/tex/hedraextra.sty
INPUT /home/jorge/texmf/tex/hedraextra.sty
INPUT /usr/share/texlive/texmf-dist/tex/latex/base/textcomp.sty
INPUT /usr/share/texlive/texmf-dist/tex/latex/base/textcomp.sty
INPUT /usr/share/texlive/texmf-dist/tex/latex/base/ts1enc.def
INPUT /usr/share/texlive/texmf-dist/tex/latex/base/ts1enc.def
INPUT /usr/share/texlive/texmf-dist/tex/latex/shorttoc/shorttoc.sty
INPUT /usr/share/texlive/texmf-dist/tex/latex/shorttoc/shorttoc.sty
INPUT /home/jorge/texmf/tex/graficos.sty
INPUT /home/jorge/texmf/tex/graficos.sty
INPUT /usr/share/texlive/texmf-dist/tex/latex/wrapfig/wrapfig.sty
INPUT /usr/share/texlive/texmf-dist/tex/latex/wrapfig/wrapfig.sty
INPUT /usr/share/texlive/texmf-dist/tex/latex/caption/caption.sty
INPUT /usr/share/texlive/texmf-dist/tex/latex/caption/caption.sty
INPUT /usr/share/texlive/texmf-dist/tex/latex/caption/caption3.sty
INPUT /usr/share/texlive/texmf-dist/tex/latex/caption/caption3.sty
INPUT /usr/share/texlive/texmf-dist/tex/latex/textpos/textpos.sty
INPUT /usr/share/texlive/texmf-dist/tex/latex/textpos/textpos.sty
INPUT /usr/share/texlive/texmf-dist/tex/latex/sttools/floatpag.sty
INPUT /usr/share/texlive/texmf-dist/tex/latex/sttools/floatpag.sty
INPUT /home/jorge/texmf/tex/hedralogo.sty
INPUT /home/jorge/texmf/tex/hedralogo.sty
INPUT fichatecnica.sty
INPUT fichatecnica.sty
INPUT /home/jorge/texmf/tex/aparatos.sty
INPUT /home/jorge/texmf/tex/aparatos.sty
INPUT /home/jorge/texmf/tex/listingx.sty
INPUT /home/jorge/texmf/tex/listingx.sty
INPUT /home/jorge/texmf/tex/tabelas.sty
INPUT /home/jorge/texmf/tex/tabelas.sty
INPUT /usr/share/texlive/texmf-dist/tex/latex/xtab/xtab.sty
INPUT /usr/share/texlive/texmf-dist/tex/latex/xtab/xtab.sty
INPUT /usr/share/texlive/texmf-dist/tex/latex/enumitem/enumitem.sty
INPUT /usr/share/texlive/texmf-dist/tex/latex/enumitem/enumitem.sty
INPUT /home/jorge/texmf/tex/versos.sty
INPUT /home/jorge/texmf/tex/versos.sty
INPUT LIVRO.aux
INPUT LIVRO.aux
INPUT PUBLICIDADE.aux
INPUT PUBLICIDADE.aux
OUTPUT LIVRO.aux
INPUT /usr/share/texlive/texmf-dist/tex/generic/babel/lgrcmr.fd
INPUT /usr/share/texlive/texmf-dist/tex/generic/babel/lgrcmr.fd
INPUT /usr/share/texlive/texmf-dist/tex/latex/cyrillic/t2acmr.fd
INPUT /usr/share/texlive/texmf-dist/tex/latex/cyrillic/t2acmr.fd
INPUT /usr/share/texmf/tex/latex/tipa/t3cmr.fd
INPUT /usr/share/texmf/tex/latex/tipa/t3cmr.fd
INPUT /usr/share/texlive/texmf-dist/tex/latex/base/ts1cmr.fd
INPUT /usr/share/texlive/texmf-dist/tex/latex/base/ts1cmr.fd
INPUT /usr/share/texlive/texmf-dist/tex/latex/psnfss/ot1ptm.fd
INPUT /usr/share/texlive/texmf-dist/tex/latex/psnfss/ot1ptm.fd
INPUT /usr/share/texlive/texmf-dist/fonts/tfm/adobe/times/ptmr7t.tfm
INPUT /usr/share/texlive/texmf-dist/fonts/tfm/adobe/times/ptmr7t.tfm
INPUT PRETAS.tex
INPUT PRETAS.tex
INPUT PRETAS.tex
INPUT LIVRO.toc
INPUT LIVRO.toc
INPUT NOTAS.tex
INPUT NOTAS.tex
INPUT /usr/share/texlive/texmf-dist/fonts/tfm/public/cm/cmmi10.tfm
INPUT /usr/share/texlive/texmf-dist/fonts/tfm/public/cm/cmmi8.tfm
INPUT /usr/share/texlive/texmf-dist/fonts/tfm/public/cm/cmmi6.tfm
INPUT /usr/share/texlive/texmf-dist/fonts/tfm/public/cm/cmsy10.tfm
INPUT /usr/share/texlive/texmf-dist/fonts/tfm/public/cm/cmsy8.tfm
INPUT /usr/share/texlive/texmf-dist/fonts/tfm/public/cm/cmsy6.tfm
INPUT /usr/share/texlive/texmf-dist/fonts/tfm/public/cm/cmr8.tfm
INPUT /usr/share/texlive/texmf-dist/fonts/tfm/public/cm/cmr6.tfm
OUTPUT PUBLICIDADE.aux
INPUT /home/jorge/texmf/tex/PUBLICIDADE.tex
INPUT /home/jorge/texmf/tex/PUBLICIDADE.tex
OUTPUT LIVRO.toc
INPUT LIVRO.aux
INPUT PUBLICIDADE.aux
INPUT PUBLICIDADE.aux
